{
    "deploy": [
        "../deploy_s3.md"
    ],
    "docs": "",
    "features": [
        "BLE",
        "WiFi"
    ],
    "images": [
        "robotarna_logic.jpg"
    ],
    "mcu": "esp32s3",
    "product": "Logic",
    "thumbnail": "",
    "url": "https://logic.robotikabrno.cz/",
    "vendor": "Robotarna"
}
